FSM/simulation/qsim/FSM.msim.vcd
$comment
	File created using the following command:
		vcd file FSM.msim.vcd -direction
$end
$date
	Mon Nov 10 11:34:28 2025
$end
$version
	ModelSim Version 2020.1
$end
$timescale
	1ps
$end

$scope module FSM_vlg_vec_tst $end
$var reg 1 ! Din $end
$var reg 1 " clock $end
$var reg 1 # reset $end
$var wire 1 $ Dout $end

$scope module i1 $end
$var wire 1 % gnd $end
$var wire 1 & vcc $end
$var wire 1 ' unknown $end
$var tri1 1 ( devclrn $end
$var tri1 1 ) devpor $end
$var tri1 1 * devoe $end
$var wire 1 + Dout~output_o $end
$var wire 1 , reset~input_o $end
$var wire 1 - clock~input_o $end
$var wire 1 . Din~input_o $end
$var wire 1 / reg_fstate.S1~0_combout $end
$var wire 1 0 fstate.S1~q $end
$var wire 1 1 reg_fstate.S2~0_combout $end
$var wire 1 2 fstate.S2~q $end
$var wire 1 3 reg_fstate.S3~0_combout $end
$var wire 1 4 fstate.S3~q $end
$var wire 1 5 reg_fstate.S4~0_combout $end
$var wire 1 6 fstate.S4~q $end
$var wire 1 7 reg_fstate.S5~0_combout $end
$var wire 1 8 fstate.S5~q $end
$var wire 1 9 Dout~0_combout $end
$upscope $end
$upscope $end
$enddefinitions $end
#0
$dumpvars
0!
0"
0#
0$
0%
1&
x'
1(
1)
1*
0+
0,
0-
0.
1/
00
01
02
03
04
05
06
07
08
09
$end
#10000
1"
1-
10
#20000
1!
0"
1.
0-
11
0/
#30000
1"
1-
12
00
01
#40000
0!
0"
0.
0-
13
#50000
1"
1-
14
02
03
1/
#60000
1!
0"
1.
0-
15
0/
#70000
1"
1-
16
04
05
17
#80000
0"
0-
#90000
1"
1-
18
06
07
19
1+
1$
#100000
0!
0"
0.
0-
1/
#110000
1"
1-
08
10
09
0+
0$
#120000
0"
0-
#130000
1"
1-
#140000
0"
0-
#150000
1"
1-
#160000
0"
0-
#170000
1"
1-
#180000
0"
0-
#190000
1"
1-
#200000
0"
0-
#210000
1"
1-
#220000
0"
0-
#230000
1"
1-
#240000
0"
0-
#250000
1"
1-
#260000
0"
0-
#270000
1"
1-
#280000
0"
0-
#290000
1"
1-
#300000
0"
0-
#310000
1"
1-
#320000
0"
0-
#330000
1"
1-
#340000
0"
0-
#350000
1"
1-
#360000
0"
0-
#370000
1"
1-
#380000
0"
0-
#390000
1"
1-
#400000
0"
0-
#410000
1"
1-
#420000
0"
0-
#430000
1"
1-
#440000
0"
0-
#450000
1"
1-
#460000
0"
0-
#470000
1"
1-
#480000
0"
0-
#490000
1"
1-
#500000
0"
0-
#510000
1"
1-
#520000
0"
0-
#530000
1"
1-
#540000
0"
0-
#550000
1"
1-
#560000
0"
0-
#570000
1"
1-
#580000
0"
0-
#590000
1"
1-
#600000
0"
0-
#610000
1"
1-
#620000
0"
0-
#630000
1"
1-
#640000
0"
0-
#650000
1"
1-
#660000
0"
0-
#670000
1"
1-
#680000
0"
0-
#690000
1"
1-
#700000
0"
0-
#710000
1"
1-
#720000
0"
0-
#730000
1"
1-
#740000
0"
0-
#750000
1"
1-
#760000
0"
0-
#770000
1"
1-
#780000
0"
0-
#790000
1"
1-
#800000
0"
0-
#810000
1"
1-
#820000
0"
0-
#830000
1"
1-
#840000
0"
0-
#850000
1"
1-
#860000
0"
0-
#870000
1"
1-
#880000
0"
0-
#890000
1"
1-
#900000
0"
0-
#910000
1"
1-
#920000
0"
0-
#930000
1"
1-
#940000
0"
0-
#950000
1"
1-
#960000
0"
0-
#970000
1"
1-
#980000
0"
0-
#990000
1"
1-
